"CTnumL4A","CTL4A","Count","Countratio","Area","Arearatio","Classified","Strategy"
12,"Winter crops",213086,0.180970596078684,9200657780.708,0.312850953170941,TRUE,1
3,"Grassland",525476,0.446278521090277,8384098339.8536,0.285085394937954,TRUE,1
11,"Annual crop",316310,0.268637119499398,7881559149.198,0.267997500947156,TRUE,1
13,"Winter rape",37774,0.0320808654546813,2737992173.591,0.0931002414934518,TRUE,1
4,"Fallow",30993,0.0263218685613633,620847679.49,0.0211107502237157,TRUE,1
6,"Other natural areas",33310,0.0282896603032624,376353296.6319,0.0127971815044789,FALSE,0
2,"Permanent crops",20130,0.0170960931223258,206622884.702,0.00702582010619853,TRUE,1
5,"Greenhouse and nursery",383,0.000325275890007491,945725.8091,3.2157616103892e-05,FALSE,0
