"CTnumL4A","CTL4A","sum_class","well_class","user_accuracy","conf_class1","conf_per1","conf_class2","conf_per2","conf_class3","conf_per3"
12,"Winter crops",158988,132772,0.835107052104561,"Grassland",5.9,"Annual crop",5.2,"Winter rape",4.1
3,"Grassland",348268,301509,0.86573845429382,"Annual crop",6.2,"Winter crops",3,"Permanent crops",1.9
11,"Annual crop",172396,143929,0.834874359033852,"Fallow",6.4,"Grassland",6.1,"Winter crops",2.7
13,"Winter rape",20555,19411,0.944344441741669,"Winter crops",4.3,"Annual crop",0.8,"Grassland",0.4
4,"Fallow",7,2,0.285714285714286,"Annual crop",42.9,"Grassland",28.6,NA,NA
2,"Permanent crops",322,284,0.881987577639752,"Winter crops",4.3,"Grassland",3.4,"Annual crop",2.8
