Ori_crop,CTnum,CT,LC,CTnumL4A,CTL4A,CTnumDIV,CTDIV,EAA,AL,PGrass,TGrass,Fallow,Cwater,Protein,Cother
AKT,118,Actinide,1,2,Permanent crops,2000,Permanent crops,1,0,0,0,0,0,0,0
ARU,102,Aronia berry,1,2,Permanent crops,2000,Permanent crops,1,0,0,0,0,0,0,0
ASU,97,Gooseberry berry,1,2,Permanent crops,2000,Permanent crops,1,0,0,0,0,0,0,0
AVU,101,Raspberry,1,2,Permanent crops,2000,Permanent crops,1,0,0,0,0,0,0,0
BAL,124,Grey alder,1,2,Permanent crops,2000,Permanent crops,1,0,0,0,0,0,0,0
BKU,108,Lingonberry,1,2,Permanent crops,2000,Permanent crops,1,0,0,0,0,0,0,0
BRA,103,Strawberry,1,2,Permanent crops,2000,Permanent crops,1,0,0,0,0,0,0,0
BSU,100,White currant berry,1,2,Permanent crops,2000,Permanent crops,1,0,0,0,0,0,0,0
DRA,125,Miscanthus x giganteus,1,2,Permanent crops,2000,Permanent crops,1,0,0,0,0,0,0,0
ERK,114,Rosehips,1,2,Permanent crops,2000,Permanent crops,1,0,0,0,0,0,0,0
GEU,107,Blackberry,1,2,Permanent crops,2000,Permanent crops,1,0,0,0,0,0,0,0
GLU,122,Willows,1,2,Permanent crops,2000,Permanent crops,1,0,0,0,0,0,0,0
GUD,115,Hawthorn,1,2,Permanent crops,2000,Permanent crops,1,0,0,0,0,0,0,0
JSU,98,Black currant berry,1,2,Permanent crops,2000,Permanent crops,1,0,0,0,0,0,0,0
KRI,129,Horseradish,1,2,Permanent crops,2000,Permanent crops,1,0,0,0,0,0,0,0
KRS,92,Pear orchards,1,2,Permanent crops,2000,Permanent crops,1,0,0,0,0,0,0,0
KTS,96,Other gardens and perennial berry,1,2,Permanent crops,2000,Permanent crops,1,0,0,0,0,0,0,0
MED,120,Nurseries,1,2,Permanent crops,2000,Permanent crops,1,0,0,0,0,0,0,0
MĖU,109,Blueberry ,1,2,Permanent crops,2000,Permanent crops,1,0,0,0,0,0,0,0
OBS,91,Apple orchards,1,2,Permanent crops,2000,Permanent crops,1,0,0,0,0,0,0,0
OŽE,179,Chinese wolfberry,1,2,Permanent crops,2000,Permanent crops,1,0,0,0,0,0,0,0
PERMANENT CROPS,166,PERMANENT CROPS,1,2,Permanent crops,2000,Permanent crops,1,0,0,0,0,0,0,0
PUU,112,Wayfaring-trees,1,2,Permanent crops,2000,Permanent crops,1,0,0,0,0,0,0,0
RAB,127,Rhubarb,1,2,Permanent crops,2000,Permanent crops,1,0,0,0,0,0,0,0
RŠT,119,Walnut,1,2,Permanent crops,2000,Permanent crops,1,0,0,0,0,0,0,0
RSU,99,Red currant berry,1,2,Permanent crops,2000,Permanent crops,1,0,0,0,0,0,0,0
ŠAU,113,Sea buckthorn,1,2,Permanent crops,2000,Permanent crops,1,0,0,0,0,0,0,0
ŠIU,106,Blueberry (x),1,2,Permanent crops,2000,Permanent crops,1,0,0,0,0,0,0,0
SLS,93,Plum gardens,1,2,Permanent crops,2000,Permanent crops,1,0,0,0,0,0,0,0
SMD,117,Honeysuckle,1,2,Permanent crops,2000,Permanent crops,1,0,0,0,0,0,0,0
ŠPA,128,Asparagus,1,2,Permanent crops,2000,Permanent crops,1,0,0,0,0,0,0,0
SPU,110,Cranberry,1,2,Permanent crops,2000,Permanent crops,1,0,0,0,0,0,0,0
ŠRM,116,Ashberry,1,2,Permanent crops,2000,Permanent crops,1,0,0,0,0,0,0,0
SVU,105,Quince berry,1,2,Permanent crops,2000,Permanent crops,1,0,0,0,0,0,0,0
TOP,126,Jerusalem artichokes,1,2,Permanent crops,2000,Permanent crops,1,0,0,0,0,0,0,0
TRS,95,Sweet cherry orchards,1,2,Permanent crops,2000,Permanent crops,1,0,0,0,0,0,0,0
TUO,123,Poplar,1,2,Permanent crops,2000,Permanent crops,1,0,0,0,0,0,0,0
VYS,94,Cherry gardens,1,2,Permanent crops,2000,Permanent crops,1,0,0,0,0,0,0,0
ŽEU,111,Wild strawberry,1,2,Permanent crops,2000,Permanent crops,1,0,0,0,0,0,0,0
5PT-2,134,Extensive management of wetlands ,1,3,Grassland,3200,Grass_perm,1,0,1,0,0,0,0,0
5PT-7,90,Protection of water bodies against pollution and soil erosion on arable land,1,3,Grassland,3200,Grass_perm,1,0,1,0,0,0,0,0
5PT-8,89,Melliferous plant tape or fields of arable land,1,3,Grassland,3200,Grass_perm,1,0,1,0,0,0,0,0
BRN,170,Pigweeds,1,11,Annual crop,3100,Grass_temp,1,1,0,1,0,0,0,0
DGP,130,Perennial pastures or meadows (>5y),1,3,Grassland,3200,Grass_perm,1,0,1,0,0,0,0,0
EPT,131,Extensive meadows grazing with livestock,1,3,Grassland,3200,Grass_perm,1,0,1,0,0,0,0,0
GPA,171,Pasture or meadow (<5y) updated this year,1,3,Grassland,3100,Grass_temp,1,1,0,1,0,0,0,0
GPŽ,87,Pasture or meadow (<5y),1,3,Grassland,3100,Grass_temp,1,1,0,1,0,0,0,0
GRASSLAND,165,GRASSLAND,1,3,Grassland,3200,Grass_perm,1,0,1,0,0,0,0,0
LEG,175,Cup plant (indian cup),1,11,Annual crop,3100,Grass_temp,1,1,0,1,0,0,0,0
MNP,136,Aquatic warbler habitats storage in raw and semi-natural grasslands,1,3,Grassland,3200,Grass_perm,1,0,1,0,0,0,0,0
MNŠ,137,Aquatic warbler habitats storage in wetlands (direct payments are paid),1,3,Grassland,3200,Grass_perm,1,0,1,0,0,0,0,0
NPT,132,Natural and semi-natural meadows,1,3,Grassland,3200,Grass_perm,1,0,1,0,0,0,0,0
RZV,88,Risk improvement of water body,1,3,Grassland,3200,Grass_perm,1,0,1,0,0,0,0,0
SPT,133,Specific meadows,1,3,Grassland,3200,Grass_perm,1,0,1,0,0,0,0,0
VTP,135,Shore protective belts of meadows,1,3,Grassland,3200,Grass_perm,1,0,1,0,0,0,0,0
PDJ,72,Black fallow,1,4,Fallow,18,Black fallow,1,1,0,0,1,0,0,0
PDŽ,71,Green fallow,1,4,Fallow,55,Green fallow,1,1,0,0,1,0,0,0
FALLOW,167,FALLOW,1,4,Fallow,4000,Fallow,1,1,0,0,1,0,0,0
AGU,17,Cucumbers (closed ground),0,5,Greenhouse and nursery,0,Other natural areas nursery and greenhouse,1,1,0,0,0,0,0,0
BRU,104,Strawberry (closed ground),0,5,Greenhouse and nursery,0,Other natural areas nursery and greenhouse,1,0,0,0,0,0,0,0
DUK,19,Other vegetables (closed ground),0,5,Greenhouse and nursery,92,Other crops on arable land,1,1,0,0,0,0,0,1
GĖL,121,Perennial flowers and ornamental plants (closed ground),0,5,Greenhouse and nursery,0,Other natural areas nursery and greenhouse,1,0,0,0,0,0,0,0
POM,18,Tomatoes (closed ground),0,5,Greenhouse and nursery,0,Other natural areas nursery and greenhouse,1,1,0,0,0,0,0,0
5PT-11,143,Reclamation of ditches when the grass is cut and removed,0,6,Other natural areas,0,Other natural areas nursery and greenhouse,1,0,0,0,0,0,0,0
5PT-12,144,Reclamation of ditches when the grass is crushed and spread on the slope of the ditch,0,6,Other natural areas,0,Other natural areas nursery and greenhouse,1,0,0,0,0,0,0,0
5PT-3,141,Extensive management of wetlands,0,6,Other natural areas,0,Other natural areas nursery and greenhouse,1,0,0,0,0,0,0,0
5PT-9,142,Hedges management,0,6,Other natural areas,0,Other natural areas nursery and greenhouse,0,0,0,0,0,0,0,0
AI-1,162,Payments given when farmer do not carry out main cuttings in key habitats,0,6,Other natural areas,0,Other natural areas nursery and greenhouse,0,0,0,0,0,0,0,0
AI-2,163,Payments given when farmer carry out not main cuttings instead of main cuttings,0,6,Other natural areas,0,Other natural areas nursery and greenhouse,0,0,0,0,0,0,0,0
GRS,146,Mushrooms and substrate production,0,6,Other natural areas,0,Other natural areas nursery and greenhouse,1,0,0,0,0,0,0,0
GRY,145,Mushrooms,0,6,Other natural areas,0,Other natural areas nursery and greenhouse,1,0,0,0,0,0,0,0
MNN,140,Aquatic warbler habitats storage in wetlands,0,6,Other natural areas,0,Other natural areas nursery and greenhouse,1,0,0,0,0,0,0,0
MVP,147,Afforestation,0,6,Other natural areas,0,Other natural areas nursery and greenhouse,0,0,0,0,0,0,0,0
NEP,139,Not eligible areas,0,6,Other natural areas,0,Other natural areas nursery and greenhouse,0,0,0,0,0,0,0,0
NM-1,155,Conifers with softwood broadleaves (not less than 20 %) or soft hardwood plantations (non-agricultural land),0,6,Other natural areas,0,Other natural areas nursery and greenhouse,0,0,0,0,0,0,0,0
NM-2,156,Softwood and (or) soft broadleaves with not less than 20 % of solid hardwoods and (or) lime-tree admixture (non-agricultural land),0,6,Other natural areas,0,Other natural areas nursery and greenhouse,0,0,0,0,0,0,0,0
NM-3,157,Hardwood and (or) lime-tree plantations with not more than 40 % of conifers and (or) soft deciduous (non-agricultural land),0,6,Other natural areas,0,Other natural areas nursery and greenhouse,0,0,0,0,0,0,0,0
NM-4,158,Hardwood,0,6,Other natural areas,0,Other natural areas nursery and greenhouse,0,0,0,0,0,0,0,0
NM-5,159,Oak plantation,0,6,Other natural areas,0,Other natural areas nursery and greenhouse,0,0,0,0,0,0,0,0
NM-6,160,Fast-growing hybrid aspen plantation for short rotation coppice (agricultural land),0,6,Other natural areas,0,Other natural areas nursery and greenhouse,0,0,0,0,0,0,0,0
NM-7,161,Other fast-growing short rotation coppice (agricultural land),0,6,Other natural areas,0,Other natural areas nursery and greenhouse,0,0,0,0,0,0,0,0
NTM,164,Natura 2000 forests,0,6,Other natural areas,0,Other natural areas nursery and greenhouse,0,0,0,0,0,0,0,0
SLU,178,Lettuce (in closed soil),0,6,Other natural areas,0,Other natural areas nursery and greenhouse,1,1,0,0,0,0,0,0
TPN,138,Eligible areas,0,6,Other natural areas,0,Other natural areas nursery and greenhouse,1,0,0,0,0,0,0,0
ŽM-1,148,Conifers with softwood broadleaves (not less than 20 %) or soft hardwood plantations (agricultural land),0,6,Other natural areas,0,Other natural areas nursery and greenhouse,0,0,0,0,0,0,0,0
ŽM-2,149,Softwood and (or) soft broadleaves with not less than 20 % of solid hardwoods and (or) lime-tree admixture (agricultural land),0,6,Other natural areas,0,Other natural areas nursery and greenhouse,0,0,0,0,0,0,0,0
ŽM-3,150,Hardwood and (or) lime-tree plantations with not more than 40 % of conifers and (or) soft deciduous (agricultural land),0,6,Other natural areas,0,Other natural areas nursery and greenhouse,0,0,0,0,0,0,0,0
ŽM-4,151,Hardwood,0,6,Other natural areas,0,Other natural areas nursery and greenhouse,0,0,0,0,0,0,0,0
ŽM-5,152,Oak plantation,0,6,Other natural areas,0,Other natural areas nursery and greenhouse,0,0,0,0,0,0,0,0
ŽM-6,153,Fast-growing hybrid aspen plantation for short rotation coppice (agricultural land),0,6,Other natural areas,0,Other natural areas nursery and greenhouse,0,0,0,0,0,0,0,0
ŽM-7,154,Other fast-growing short rotation coppice (agricultural land),0,6,Other natural areas,0,Other natural areas nursery and greenhouse,0,0,0,0,0,0,0,0
AGK,20,Cucumbers,1,11,Annual crop,40,Cucumbers,1,1,0,0,0,0,0,0
AGR,42,Courgettes,1,11,Annual crop,38,Courgettes,1,1,0,0,0,0,0,0
AKM,86,Nitrogen accumulated plant mixtures ,1,11,Annual crop,84,Nitrogen accumulated plant mixtures ,1,1,0,0,0,0,0,0
ALR,57,Oilseed radish,1,11,Annual crop,89,Oilseed radish,1,1,0,0,0,0,0,0
AMP,68,Aromatics,1,11,Annual crop,10,Aromatics,1,1,0,0,0,0,0,0
APY,52,Hops,1,11,Annual crop,67,Hops,1,1,0,0,0,0,0,0
ART,28,Artichokes,1,11,Annual crop,12,Artichokes,1,1,0,0,0,0,0,0
AVI,1,Oats,1,11,Annual crop,88,Oats,1,1,0,0,0,0,0,0
BAK,49,Eggplants,1,11,Annual crop,44,Eggplants,1,1,0,0,0,0,0,0
BAR,80,Honey,1,11,Annual crop,65,Honey,1,1,0,0,0,0,0,0
BAZ,168,Basil,1,11,Annual crop,162,Basil,1,1,0,0,0,0,0,0
BMI,69,Protein crops,1,11,Annual crop,111,Protein crops,1,1,0,0,0,0,0,0
BOB,169,Quinoa,1,11,Annual crop,163,Quinoa,1,1,0,0,0,0,0,0
BRO,23,Broccoli,1,11,Annual crop,23,Broccoli,1,1,0,0,0,0,0,0
BUL,51,Potatoes,1,11,Annual crop,109,Potatoes,1,1,0,0,0,0,0,0
BUR,22,Beetroots,1,11,Annual crop,16,Beetroots,1,1,0,0,0,0,0,0
ČES,33,Garlic,1,11,Annual crop,52,Garlic,1,1,0,0,0,0,0,0
CUK,36,Zucchini,1,11,Annual crop,161,Zucchini,1,1,0,0,0,0,0,0
CUR,53,Sugar beet,1,11,Annual crop,140,Sugar beet,1,1,0,0,0,0,0,0
DAK,34,Other vegetables,1,11,Annual crop,92,Other crops on arable land,1,1,0,0,0,0,0,1
DOB,78,Clover,1,11,Annual crop,33,Clover,1,1,0,0,0,0,0,0
ESP,79,Sainfoin,1,11,Annual crop,122,Sainfoin,1,1,0,0,0,0,0,0
FAC,59,Bluebell,1,11,Annual crop,20,Bluebell,1,1,0,0,0,0,0,0
GAB,55,White mustard,1,11,Annual crop,151,White mustard,1,1,0,0,0,0,0,0
GAJ,56,Brown black mustard,1,11,Annual crop,179,Black mustard,1,1,0,0,0,0,0,0
GAR,82,Lotus purpueus,1,11,Annual crop,74,Lotus purpueus,1,1,0,0,0,0,0,0
GRE,44,Swedes,1,11,Annual crop,142,Swedes,1,1,0,0,0,0,0,0
GRI,2,Buckwheat,1,11,Annual crop,26,Buckwheat,1,1,0,0,0,0,0,0
JUD,15,Agile,1,11,Annual crop,4,Agile,1,1,0,0,0,0,0,0
KAL,30,Kohlrabi,1,11,Annual crop,70,Kohlrabi,1,1,0,0,0,0,0,0
KAN,60,Hemp,1,11,Annual crop,63,Hemp,1,1,0,0,0,0,0,0
KLA,172,Coriander,1,11,Annual crop,164,Coriander,1,1,0,0,0,0,0,0
KMY,58,Cumin,1,11,Annual crop,42,Cumin,1,1,0,0,0,0,0,0
KOB,27,Brussels sprouts,1,11,Annual crop,25,Brussels sprouts,1,1,0,0,0,0,0,0
KOK,26,Chinese cabbage,1,11,Annual crop,32,Chinese cabbage,1,1,0,0,0,0,0,0
KOP,24,Cabbage,1,11,Annual crop,27,Cabbage,1,1,0,0,0,0,0,0
KOŽ,25,Cauliflower,1,11,Annual crop,29,Cauliflower,1,1,0,0,0,0,0,0
KRA,46,Dill,1,11,Annual crop,43,Dill,1,1,0,0,0,0,0,0
KRV,3,Spring triticale,1,11,Annual crop,136,Spring triticale,1,1,0,0,0,0,0,0
KSV,173,Summer wheat 'Spelta',1,11,Annual crop,165,Summer wheat 'Spelta',1,1,0,0,0,0,0,0
KTŽ,16,Other crops on arable land,1,11,Annual crop,92,Other crops on arable land,1,1,0,0,0,0,0,1
KUK,5,Corn,1,11,Annual crop,37,Corn,1,1,0,0,0,0,0,0
KVV,6,Spring wheat,1,11,Annual crop,137,Spring wheat,1,1,0,0,0,0,0,0
LEŠ,76,Lentils,1,11,Annual crop,72,Lentils,1,1,0,0,0,0,1,0
LIC,81,Lucerne,1,11,Annual crop,75,Lucerne,1,1,0,0,0,0,0,0
LIN,61,Flax,1,11,Annual crop,50,Flax,1,1,0,0,0,0,0,0
LUB,77,Lupin,1,11,Annual crop,76,Lupin,1,1,0,0,0,0,1,0
MIV,8,Spring barley,1,11,Annual crop,133,Spring barley,1,1,0,0,0,0,0,0
MOL,37,Pumpkins,1,11,Annual crop,112,Pumpkins,1,1,0,0,0,0,0,0
MOR,29,Carrots,1,11,Annual crop,28,Carrots,1,1,0,0,0,0,0,0
NMI,70,Agricultural mix,1,11,Annual crop,5,Agricultural mix,1,1,0,0,0,0,0,0
OŽI,83,Galega orientalis,1,11,Annual crop,51,Galega orientalis,1,1,0,0,0,0,0,0
PAP,43,Paprika,1,11,Annual crop,97,Paprika,1,1,0,0,0,0,0,0
PAR,54,Mangel-wurzel,1,11,Annual crop,77,Mangel-wurzel,1,1,0,0,0,0,0,0
PAS,50,Parsnips,1,11,Annual crop,98,Parsnips,1,1,0,0,0,0,0,0
PAT,38,Patisony,1,11,Annual crop,100,Patisony,1,1,0,0,0,0,0,0
PET,176,Parsley,1,11,Annual crop,177,Parsley,1,1,0,0,0,0,0,0
POD,21,Tomatoes,1,11,Annual crop,145,Tomatoes,1,1,0,0,0,0,0,0
POR,32,Leeks,1,11,Annual crop,71,Leeks,1,1,0,0,0,0,0,0
PUP,73,Beans,1,11,Annual crop,15,Beans,1,1,0,0,0,0,1,0
RAD,177,Oregano,1,11,Annual crop,178,Oregano,1,1,0,0,0,0,0,0
RAP,14,Colza,1,11,Annual crop,34,Colza,1,1,0,0,0,0,0,0
RAV,10,Spring rape,1,11,Annual crop,134,Spring rape,1,1,0,0,0,0,0,0
RDK,41,Radishes,1,11,Annual crop,114,Radishes,1,1,0,0,0,0,0,0
RID,40,White black radish,1,11,Annual crop,114,Radishes,1,1,0,0,0,0,0,0
ROP,48,Turnips,1,11,Annual crop,147,Turnips,1,1,0,0,0,0,0,0
RŪG,45,Sorrel,1,11,Annual crop,129,Sorrel,1,1,0,0,0,0,0,0
RUV,12,Spring rye,1,11,Annual crop,135,Spring rye,1,1,0,0,0,0,0,0
SAL,35,Celery,1,11,Annual crop,30,Celery,1,1,0,0,0,0,0,0
SAU,62,Sunflower,1,11,Annual crop,141,Sunflower,1,1,0,0,0,0,0,0
SER,84,Ornithopus sativus,1,11,Annual crop,91,Ornithopus sativus,1,1,0,0,0,0,0,0
SJO,66,Soy,1,11,Annual crop,130,Soy,1,1,0,0,0,0,0,0
SLO,39,Salad,1,11,Annual crop,123,Salad,1,1,0,0,0,0,0,0
ŠPI,47,Spinach,1,11,Annual crop,132,Spinach,1,1,0,0,0,0,0,0
SRG,64,Sorghum,1,11,Annual crop,128,Sorghum,1,1,0,0,0,0,0,0
SRS,63,Millet,1,11,Annual crop,79,Millet,1,1,0,0,0,0,0,0
STR,65,Grass (canary feed),1,11,Annual crop,54,Grass (canary feed),1,1,0,0,0,0,0,0
SVO,31,Onions,1,11,Annual crop,90,Onions,1,1,0,0,0,0,0,0
TAB,67,Tobacco,1,11,Annual crop,144,Tobacco,1,1,0,0,0,0,0,0
VIK,74,Wikis,1,11,Annual crop,153,Wikis,1,1,0,0,0,0,1,0
ŽIR,75,Peas,1,11,Annual crop,104,Peas,1,1,0,0,0,0,1,0
ŽMI,85,Herbaceous protein plant mixtures ,1,11,Annual crop,64,Herbaceous protein plant mixtures ,1,1,0,0,0,0,0,0
KRŽ,4,Winter triticale,1,12,Winter crops,159,Winter triticale,1,1,0,0,0,0,0,0
KSŽ,174,Winter wheat 'Spelta',1,12,Winter crops,166,Winter wheat 'Spelta',1,1,0,0,0,0,0,0
KVŽ,7,Winter wheat,1,12,Winter crops,160,Winter wheat,1,1,0,0,0,0,0,0
MIŽ,9,Winter barley,1,12,Winter crops,156,Winter barley,1,1,0,0,0,0,0,0
RUŽ,13,Winter rye,1,12,Winter crops,158,Winter rye,1,1,0,0,0,0,0,0
RAŽ,11,Winter rape,1,13,Winter rape,157,Winter rape,1,1,0,0,0,0,0,0
