"CTnumL4A","CTL4A","sum_class","well_class","user_accuracy","conf_class1","conf_per1","conf_class2","conf_per2","conf_class3","conf_per3"
12,"Winter crops",144358,128769,0.892011526898405,"Grassland",4.4,"Annual crop",4.3,"Winter rape",1.2
3,"Grassland",330654,287912,0.870734967670132,"Annual crop",6.3,"Winter crops",2.4,"Permanent crops",2
11,"Annual crop",158788,133459,0.840485427110361,"Fallow",6.7,"Grassland",5.5,"Winter crops",2.7
13,"Winter rape",23973,23208,0.968089100237768,"Winter crops",1.5,"Annual crop",1.1,"Grassland",0.4
4,"Fallow",2,2,1,NA,NA,NA,NA,NA,NA
2,"Permanent crops",857,790,0.921820303383897,"Grassland",4.7,"Annual crop",2,"Fallow",0.7
